2011-06-21 10:16:19 - 3, 4, 2099, ab
2011-06-21 10:16:42 - 3, 4, 3613, ab
2011-06-21 10:16:43 - 3, 4, 1929, ab
2011-06-21 12:01:06 - 3, 4, 49116, ab
2011-06-21 12:01:07 - 3, 4, 19486, ab
2011-06-21 12:01:08 - 3, 4, 38853, ab
2012-04-13 07:50:07 - 0, 1, 28521, wb
